{
  "project_info": {
    "project_number": "742109563163",
    "firebase_url": "https://quicktrip-c201f.firebaseio.com",
    "project_id": "quicktrip-c201f",
    "storage_bucket": "quicktrip-c201f.appspot.com"
  },
  "client": [
    {
      "client_info": {
        "mobilesdk_app_id": "1:742109563163:android:72e24c923784376a",
        "android_client_info": {
          "package_name": "com.applications.ahart.quicktrip"
        }
      },
      "oauth_client": [
        {
          "client_id": "742109563163-bieuql03043sb0bprdp57cd1l1fv5o8m.apps.googleusercontent.com",
          "client_type": 1,
          "android_info": {
            "package_name": "com.applications.ahart.quicktrip",
            "certificate_hash": "1feda336a50974857e6987e296b496de8c3c4515"
          }
        },
        {
          "client_id": "742109563163-nc6mhfsrogq0n32e0chf0f7iahkjk7ca.apps.googleusercontent.com",
          "client_type": 3
        }
      ],
      "api_key": [
        {
          "current_key": "AIzaSyCwuhYSAk4HIlcjDFnUHMPUeERzjHuCiUY"
        }
      ],
      "services": {
        "analytics_service": {
          "status": 1
        },
        "appinvite_service": {
          "status": 2,
          "other_platform_oauth_client": [
            {
              "client_id": "742109563163-nc6mhfsrogq0n32e0chf0f7iahkjk7ca.apps.googleusercontent.com",
              "client_type": 3
            }
          ]
        },
        "ads_service": {
          "status": 2
        }
      }
    }
  ],
  "configuration_version": "1"
}